[
  {"to":"/prescribing","title":"Prescribing Information"},
  {"to":"/types","title":"Type 2 Asthma"},
  {"to":"/summary","title":"Summary"},
  {"to":"/safety","title":"Safety Data"},
  {"to":"/dosing","title":"Dosing"},
  {"to":"/design","title":"Study Design"},
  {"to":"/references","title":"References"},
  {"to":"/","title":"","exact":true}
]
